Assessmnet-1 Part-1
…
Create two new variables: Read about cut_number()
function using Help and add a new variable to the dataset
calories_type. Use calories variable for
cut_number() function to split it into 3 categories
n=3, add labels labels=c("low", "med", "high")
and make the dataset ordered by arranging it according to calories.

fastfood %>%
  mutate(calories_type = cut_number(calories, n = 3, labels=c("low", "med", "high"))) %>%
  arrange(desc(calories))

## # A tibble: 515 x 23
##        X restaurant  item           calories cal_fat total_fat sat_fat trans_fat
##    <int> <chr>       <chr>             <int>   <int>     <int>   <dbl>     <dbl>
##  1    40 Mcdonalds   20 piece Butt~     2430    1270       141      24       2  
##  2    45 Mcdonalds   40 piece Chic~     1770     960       107      18       0.5
##  3    48 Mcdonalds   10 piece Swee~     1600     600        66      10       0  
##  4   193 Burger King American Brew~     1550    1134       126      47       8  
##  5    39 Mcdonalds   12 piece Butt~     1510     790        88      15       1  
##  6   116 Sonic       Garlic Parmes~     1350     900       100      17       0  
##  7    99 Sonic       Super Sonic B~     1280     830        92      36       4  
##  8   271 Dairy Queen 6 Piece Chick~     1260     590        66      11       1  
##  9   212 Burger King Rodeo King         1250     738        82      31       3.5
## 10   102 Sonic       Super Sonic D~     1220     780        87      34       4  
## # ... with 505 more rows, and 15 more variables: cholesterol <int>,
## #   sodium <int>, total_carb <int>, fiber <int>, sugar <int>, protein <int>,
## #   vit_a <int>, vit_c <int>, calcium <int>, heavy_food <chr>,
## #   avarege_calories <dbl>, max_fat <int>, min_cholesterol <int>,
## #   cholesterol_sodium <int>, calories_type <fct>
…
